Loja,Qntd_Tpvs,IP
06001,8,10.106.104.2
06002,9,10.106.104.3
06006,6,10.106.104.4
06003,8,10.106.104.5
06004,8,10.106.104.6
06007,4,10.106.104.8
06013,7,10.106.104.9
06020,7,10.106.104.10
06030,5,10.106.104.13
06040,5,10.106.104.15
06005,6,10.106.104.16
06036,4,10.106.104.18
06046,8,10.106.104.19
06042,4,10.106.104.20
06047,6,10.106.104.21
06200,6,10.106.104.22
06201,5,10.106.104.23
06051,4,10.106.104.24
06052,6,10.106.104.25
06050,6,10.106.104.26
06053,4,10.106.104.27
06204,5,10.106.104.35
06037,5,10.106.104.28
06027,7,10.106.104.33
06048,5,10.106.104.34
06203,5,10.106.104.36
06202,6,10.106.104.38
06039,7,10.106.104.17
06035,4,10.106.104.29
06038,6,10.106.104.32
06055,6,10.106.104.39
06056,5,10.106.104.40
06054,4,10.106.104.37
06205,6,10.106.104.41
06059,7,10.106.104.42
06206,6,10.106.104.12
06049,5,10.106.104.11
