sent [IPCP ConfNak id=0x4e <addr 1.1.1.1>]
rcvd [IPCP ConfReq id=0x4f <addr 189.56.68.162>]
sent [IPCP ConfNak id=0x4f <addr 1.1.1.1>]
rcvd [IPCP ConfReq id=0x50 <addr 189.56.68.162>]
sent [IPCP ConfNak id=0x50 <addr 1.1.1.1>]
rcvd [IPCP ConfReq id=0x51 <addr 189.56.68.162>]
sent [IPCP ConfNak id=0x51 <addr 1.1.1.1>]
rcvd [IPCP ConfReq id=0x52 <addr 189.56.68.162>]
sent [IPCP ConfNak id=0x52 <addr 1.1.1.1>]
rcvd [IPCP ConfReq id=0x53 <addr 189.56.68.162>]
sent [IPCP ConfNak id=0x53 <addr 1.1.1.1>]
rcvd [IPCP ConfReq id=0x54 <addr 189.56.68.162>]
sent [IPCP ConfNak id=0x54 <addr 1.1.1.1>]
rcvd [IPCP ConfReq id=0x55 <addr 189.56.68.162>]
sent [IPCP ConfNak id=0x55 <addr 1.1.1.1>]
rcvd [IPCP ConfReq id=0x56 <addr 189.56.68.162>]
sent [IPCP ConfNak id=0x56 <addr 1.1.1.1>]
rcvd [IPCP ConfReq id=0x57 <addr 189.56.68.162>]
sent [IPCP ConfNak id=0x57 <addr 1.1.1.1>]
rcvd [IPCP ConfReq id=0x58 <addr 189.56.68.162>]
sent [IPCP ConfNak id=0x58 <addr 1.1.1.1>]
rcvd [IPCP ConfReq id=0x59 <addr 189.56.68.162>]
sent [IPCP ConfNak id=0x59 <addr 1.1.1.1>]
rcvd [IPCP ConfReq id=0x5a <addr 189.56.68.162>]
sent [IPCP ConfNak id=0x5a <addr 1.1.1.1>]
rcvd [IPCP ConfReq id=0x5b <addr 189.56.68.162>]
sent [IPCP ConfNak id=0x5b <addr 1.1.1.1>]
rcvd [IPCP ConfReq id=0x5c <addr 189.56.68.162>]
sent [IPCP ConfNak id=0x5c <addr 1.1.1.1>]
rcvd [IPCP ConfReq id=0x5d <addr 189.56.68.162>]
sent [IPCP ConfNak id=0x5d <addr 1.1.1.1>]
rcvd [IPCP ConfReq id=0x5e <addr 189.56.68.162>]
sent [IPCP ConfNak id=0x5e <addr 1.1.1.1>]
rcvd [IPCP ConfReq id=0x5f <addr 189.56.68.162>]
sent [IPCP ConfNak id=0x5f <addr 1.1.1.1>]
rcvd [IPCP ConfReq id=0x60 <addr 189.56.68.162>]
sent [IPCP ConfNak id=0x60 <addr 1.1.1.1>]
rcvd [IPCP ConfReq id=0x61 <addr 189.56.68.162>]
sent [IPCP ConfNak id=0x61 <addr 1.1.1.1>]
rcvd [IPCP ConfReq id=0x62 <addr 189.56.68.162>]
sent [IPCP ConfNak id=0x62 <addr 1.1.1.1>]
rcvd [IPCP ConfReq id=0x63 <addr 189.56.68.162>]
sent [IPCP ConfNak id=0x63 <addr 1.1.1.1>]
rcvd [IPCP ConfReq id=0x64 <addr 189.56.68.162>]
sent [IPCP ConfNak id=0x64 <addr 1.1.1.1>]
rcvd [IPCP ConfReq id=0x65 <addr 189.56.68.162>]
sent [IPCP ConfRej id=0x65 <addr 189.56.68.162>]
rcvd [IPCP ConfReq id=0x66 <addrs 189.56.68.162 10.106.106.146>]
sent [IPCP ConfRej id=0x66 <addrs 189.56.68.162 10.106.106.146>]
rcvd [IPCP ConfReq id=0x67]
sent [IPCP ConfAck id=0x67]
local  IP address 10.106.106.146
remote IP address 1.1.1.1
primary   DNS address 10.105.186.5
secondary DNS address 10.106.68.66
Script /etc/ppp/ip-up started (pid 6586)
Script /etc/ppp/ip-up finished (pid 6586), status = 0x0
Modem hangup
Connect time 221.8 minutes.
Sent 310252 bytes, received 856625 bytes.
Script /etc/ppp/ip-down started (pid 11331)
Connection terminated.
Waiting for 1 child processes...
  script /etc/ppp/ip-down, pid 11331
Script /etc/ppp/ip-down finished (pid 11331), status = 0x0
using channel 2
Using interface ppp0
Connect: ppp0 <--> /dev/pts/3
sent [LCP ConfReq id=0x1 <mru 1354> <magic 0xe6461ae8>]
rcvd [LCP ConfReq id=0x1 <magic 0x740efa87>]
sent [LCP ConfAck id=0x1 <magic 0x740efa87>]
rcvd [LCP ConfAck id=0x1 <mru 1354> <magic 0xe6461ae8>]
sent [LCP EchoReq id=0x0 magic=0xe6461ae8]
sent [CCP ConfReq id=0x1 <deflate 15> <deflate(old#) 15> <bsd v1 15>]
sent [IPCP ConfReq id=0x1 <compress VJ 0f 01> <addr 0.0.0.0> <ms-dns1 0.0.0.0> <ms-dns2 0.0.0.0>]
rcvd [LCP EchoRep id=0x0 magic=0x740efa87]
rcvd [LCP ProtRej id=0x2 80 fd 01 01 00 0f 1a 04 78 00 18 04 78 00 15 03 2f 00 00]
Protocol-Reject for 'Compression Control Protocol' (0x80fd) received
rcvd [IPCP ConfReq id=0x1 <addr 189.56.68.162>]
sent [IPCP ConfNak id=0x1 <addr 1.1.1.1>]
rcvd [IPCP ConfRej id=0x1 <compress VJ 0f 01>]
sent [IPCP ConfReq id=0x2 <addr 0.0.0.0> <ms-dns1 0.0.0.0> <ms-dns2 0.0.0.0>]
rcvd [IPCP ConfReq id=0x2 <addr 189.56.68.162>]
sent [IPCP ConfNak id=0x2 <addr 1.1.1.1>]
rcvd [IPCP ConfNak id=0x2 <addr 10.106.106.146> <ms-dns1 10.105.186.5> <ms-dns2 10.106.68.66>]
sent [IPCP ConfReq id=0x3 <addr 10.106.106.146> <ms-dns1 10.105.186.5> <ms-dns2 10.106.68.66>]
rcvd [IPCP ConfReq id=0x3 <addr 189.56.68.162>]
sent [IPCP ConfNak id=0x3 <addr 1.1.1.1>]
rcvd [IPCP ConfAck id=0x3 <addr 10.106.106.146> <ms-dns1 10.105.186.5> <ms-dns2 10.106.68.66>]
rcvd [IPCP ConfReq id=0x4 <addr 189.56.68.162>]
sent [IPCP ConfNak id=0x4 <addr 1.1.1.1>]
rcvd [IPCP ConfReq id=0x5 <addr 189.56.68.162>]
sent [IPCP ConfNak id=0x5 <addr 1.1.1.1>]
rcvd [IPCP ConfReq id=0x6 <addr 189.56.68.162>]
sent [IPCP ConfNak id=0x6 <addr 1.1.1.1>]
rcvd [IPCP ConfReq id=0x7 <addr 189.56.68.162>]
sent [IPCP ConfNak id=0x7 <addr 1.1.1.1>]
rcvd [IPCP ConfReq id=0x8 <addr 189.56.68.162>]
sent [IPCP ConfNak id=0x8 <addr 1.1.1.1>]
rcvd [IPCP ConfReq id=0x9 <addr 189.56.68.162>]
sent [IPCP ConfNak id=0x9 <addr 1.1.1.1>]
rcvd [IPCP ConfReq id=0xa <addr 189.56.68.162>]
sent [IPCP ConfNak id=0xa <addr 1.1.1.1>]
rcvd [IPCP ConfReq id=0xb <addr 189.56.68.162>]
sent [IPCP ConfNak id=0xb <addr 1.1.1.1>]
rcvd [IPCP ConfReq id=0xc <addr 189.56.68.162>]
sent [IPCP ConfNak id=0xc <addr 1.1.1.1>]
rcvd [IPCP ConfReq id=0xd <addr 189.56.68.162>]
sent [IPCP ConfNak id=0xd <addr 1.1.1.1>]
rcvd [IPCP ConfReq id=0xe <addr 189.56.68.162>]
sent [IPCP ConfNak id=0xe <addr 1.1.1.1>]
rcvd [IPCP ConfReq id=0xf <addr 189.56.68.162>]
sent [IPCP ConfNak id=0xf <addr 1.1.1.1>]
rcvd [IPCP ConfReq id=0x10 <addr 189.56.68.162>]
sent [IPCP ConfNak id=0x10 <addr 1.1.1.1>]
rcvd [IPCP ConfReq id=0x11 <addr 189.56.68.162>]
sent [IPCP ConfNak id=0x11 <addr 1.1.1.1>]
rcvd [IPCP ConfReq id=0x12 <addr 189.56.68.162>]
sent [IPCP ConfNak id=0x12 <addr 1.1.1.1>]
rcvd [IPCP ConfReq id=0x13 <addr 189.56.68.162>]
sent [IPCP ConfNak id=0x13 <addr 1.1.1.1>]
rcvd [IPCP ConfReq id=0x14 <addr 189.56.68.162>]
sent [IPCP ConfNak id=0x14 <addr 1.1.1.1>]
rcvd [IPCP ConfReq id=0x15 <addr 189.56.68.162>]
sent [IPCP ConfNak id=0x15 <addr 1.1.1.1>]
rcvd [IPCP ConfReq id=0x16 <addr 189.56.68.162>]
sent [IPCP ConfNak id=0x16 <addr 1.1.1.1>]
rcvd [IPCP ConfReq id=0x17 <addr 189.56.68.162>]
sent [IPCP ConfNak id=0x17 <addr 1.1.1.1>]
rcvd [IPCP ConfReq id=0x18 <addr 189.56.68.162>]
sent [IPCP ConfNak id=0x18 <addr 1.1.1.1>]
rcvd [IPCP ConfReq id=0x19 <addr 189.56.68.162>]
sent [IPCP ConfNak id=0x19 <addr 1.1.1.1>]
rcvd [IPCP ConfReq id=0x1a <addr 189.56.68.162>]
sent [IPCP ConfNak id=0x1a <addr 1.1.1.1>]
rcvd [IPCP ConfReq id=0x1b <addr 189.56.68.162>]
sent [IPCP ConfNak id=0x1b <addr 1.1.1.1>]
rcvd [IPCP ConfReq id=0x1c <addr 189.56.68.162>]
sent [IPCP ConfNak id=0x1c <addr 1.1.1.1>]
rcvd [IPCP ConfReq id=0x1d <addr 189.56.68.162>]
sent [IPCP ConfNak id=0x1d <addr 1.1.1.1>]
rcvd [IPCP ConfReq id=0x1e <addr 189.56.68.162>]
sent [IPCP ConfNak id=0x1e <addr 1.1.1.1>]
rcvd [IPCP ConfReq id=0x1f <addr 189.56.68.162>]
sent [IPCP ConfNak id=0x1f <addr 1.1.1.1>]
rcvd [IPCP ConfReq id=0x20 <addr 189.56.68.162>]
sent [IPCP ConfNak id=0x20 <addr 1.1.1.1>]
rcvd [IPCP ConfReq id=0x21 <addr 189.56.68.162>]
sent [IPCP ConfNak id=0x21 <addr 1.1.1.1>]
rcvd [IPCP ConfReq id=0x22 <addr 189.56.68.162>]
sent [IPCP ConfNak id=0x22 <addr 1.1.1.1>]
rcvd [IPCP ConfReq id=0x23 <addr 189.56.68.162>]
sent [IPCP ConfNak id=0x23 <addr 1.1.1.1>]
rcvd [IPCP ConfReq id=0x24 <addr 189.56.68.162>]
sent [IPCP ConfNak id=0x24 <addr 1.1.1.1>]
rcvd [IPCP ConfReq id=0x25 <addr 189.56.68.162>]
sent [IPCP ConfNak id=0x25 <addr 1.1.1.1>]
rcvd [IPCP ConfReq id=0x26 <addr 189.56.68.162>]
sent [IPCP ConfNak id=0x26 <addr 1.1.1.1>]
rcvd [IPCP ConfReq id=0x27 <addr 189.56.68.162>]
sent [IPCP ConfNak id=0x27 <addr 1.1.1.1>]
rcvd [IPCP ConfReq id=0x28 <addr 189.56.68.162>]
sent [IPCP ConfNak id=0x28 <addr 1.1.1.1>]
rcvd [IPCP ConfReq id=0x29 <addr 189.56.68.162>]
sent [IPCP ConfNak id=0x29 <addr 1.1.1.1>]
rcvd [IPCP ConfReq id=0x2a <addr 189.56.68.162>]
sent [IPCP ConfNak id=0x2a <addr 1.1.1.1>]
rcvd [IPCP ConfReq id=0x2b <addr 189.56.68.162>]
sent [IPCP ConfNak id=0x2b <addr 1.1.1.1>]
rcvd [IPCP ConfReq id=0x2c <addr 189.56.68.162>]
sent [IPCP ConfNak id=0x2c <addr 1.1.1.1>]
rcvd [IPCP ConfReq id=0x2d <addr 189.56.68.162>]
sent [IPCP ConfNak id=0x2d <addr 1.1.1.1>]
rcvd [IPCP ConfReq id=0x2e <addr 189.56.68.162>]
sent [IPCP ConfNak id=0x2e <addr 1.1.1.1>]
rcvd [IPCP ConfReq id=0x2f <addr 189.56.68.162>]
sent [IPCP ConfNak id=0x2f <addr 1.1.1.1>]
rcvd [IPCP ConfReq id=0x30 <addr 189.56.68.162>]
sent [IPCP ConfNak id=0x30 <addr 1.1.1.1>]
rcvd [IPCP ConfReq id=0x31 <addr 189.56.68.162>]
sent [IPCP ConfNak id=0x31 <addr 1.1.1.1>]
rcvd [IPCP ConfReq id=0x32 <addr 189.56.68.162>]
sent [IPCP ConfNak id=0x32 <addr 1.1.1.1>]
rcvd [IPCP ConfReq id=0x33 <addr 189.56.68.162>]
sent [IPCP ConfNak id=0x33 <addr 1.1.1.1>]
rcvd [IPCP ConfReq id=0x34 <addr 189.56.68.162>]
sent [IPCP ConfNak id=0x34 <addr 1.1.1.1>]
rcvd [IPCP ConfReq id=0x35 <addr 189.56.68.162>]
sent [IPCP ConfNak id=0x35 <addr 1.1.1.1>]
rcvd [IPCP ConfReq id=0x36 <addr 189.56.68.162>]
sent [IPCP ConfNak id=0x36 <addr 1.1.1.1>]
rcvd [IPCP ConfReq id=0x37 <addr 189.56.68.162>]
sent [IPCP ConfNak id=0x37 <addr 1.1.1.1>]
rcvd [IPCP ConfReq id=0x38 <addr 189.56.68.162>]
sent [IPCP ConfNak id=0x38 <addr 1.1.1.1>]
rcvd [IPCP ConfReq id=0x39 <addr 189.56.68.162>]
sent [IPCP ConfNak id=0x39 <addr 1.1.1.1>]
rcvd [IPCP ConfReq id=0x3a <addr 189.56.68.162>]
sent [IPCP ConfNak id=0x3a <addr 1.1.1.1>]
rcvd [IPCP ConfReq id=0x3b <addr 189.56.68.162>]
sent [IPCP ConfNak id=0x3b <addr 1.1.1.1>]
rcvd [IPCP ConfReq id=0x3c <addr 189.56.68.162>]
sent [IPCP ConfNak id=0x3c <addr 1.1.1.1>]
rcvd [IPCP ConfReq id=0x3d <addr 189.56.68.162>]
sent [IPCP ConfNak id=0x3d <addr 1.1.1.1>]
rcvd [IPCP ConfReq id=0x3e <addr 189.56.68.162>]
sent [IPCP ConfNak id=0x3e <addr 1.1.1.1>]
rcvd [IPCP ConfReq id=0x3f <addr 189.56.68.162>]
sent [IPCP ConfNak id=0x3f <addr 1.1.1.1>]
rcvd [IPCP ConfReq id=0x40 <addr 189.56.68.162>]
sent [IPCP ConfNak id=0x40 <addr 1.1.1.1>]
rcvd [IPCP ConfReq id=0x41 <addr 189.56.68.162>]
sent [IPCP ConfNak id=0x41 <addr 1.1.1.1>]
rcvd [IPCP ConfReq id=0x42 <addr 189.56.68.162>]
sent [IPCP ConfNak id=0x42 <addr 1.1.1.1>]
rcvd [IPCP ConfReq id=0x43 <addr 189.56.68.162>]
sent [IPCP ConfNak id=0x43 <addr 1.1.1.1>]
rcvd [IPCP ConfReq id=0x44 <addr 189.56.68.162>]
sent [IPCP ConfNak id=0x44 <addr 1.1.1.1>]
rcvd [IPCP ConfReq id=0x45 <addr 189.56.68.162>]
sent [IPCP ConfNak id=0x45 <addr 1.1.1.1>]
rcvd [IPCP ConfReq id=0x46 <addr 189.56.68.162>]
sent [IPCP ConfNak id=0x46 <addr 1.1.1.1>]
rcvd [IPCP ConfReq id=0x47 <addr 189.56.68.162>]
sent [IPCP ConfNak id=0x47 <addr 1.1.1.1>]
rcvd [IPCP ConfReq id=0x48 <addr 189.56.68.162>]
sent [IPCP ConfNak id=0x48 <addr 1.1.1.1>]
rcvd [IPCP ConfReq id=0x49 <addr 189.56.68.162>]
sent [IPCP ConfNak id=0x49 <addr 1.1.1.1>]
rcvd [IPCP ConfReq id=0x4a <addr 189.56.68.162>]
sent [IPCP ConfNak id=0x4a <addr 1.1.1.1>]
rcvd [IPCP ConfReq id=0x4b <addr 189.56.68.162>]
sent [IPCP ConfNak id=0x4b <addr 1.1.1.1>]
rcvd [IPCP ConfReq id=0x4c <addr 189.56.68.162>]
sent [IPCP ConfNak id=0x4c <addr 1.1.1.1>]
rcvd [IPCP ConfReq id=0x4d <addr 189.56.68.162>]
sent [IPCP ConfNak id=0x4d <addr 1.1.1.1>]
rcvd [IPCP ConfReq id=0x4e <addr 189.56.68.162>]
sent [IPCP ConfNak id=0x4e <addr 1.1.1.1>]
rcvd [IPCP ConfReq id=0x4f <addr 189.56.68.162>]
sent [IPCP ConfNak id=0x4f <addr 1.1.1.1>]
rcvd [IPCP ConfReq id=0x50 <addr 189.56.68.162>]
sent [IPCP ConfNak id=0x50 <addr 1.1.1.1>]
rcvd [IPCP ConfReq id=0x51 <addr 189.56.68.162>]
sent [IPCP ConfNak id=0x51 <addr 1.1.1.1>]
rcvd [IPCP ConfReq id=0x52 <addr 189.56.68.162>]
sent [IPCP ConfNak id=0x52 <addr 1.1.1.1>]
rcvd [IPCP ConfReq id=0x53 <addr 189.56.68.162>]
sent [IPCP ConfNak id=0x53 <addr 1.1.1.1>]
rcvd [IPCP ConfReq id=0x54 <addr 189.56.68.162>]
sent [IPCP ConfNak id=0x54 <addr 1.1.1.1>]
rcvd [IPCP ConfReq id=0x55 <addr 189.56.68.162>]
sent [IPCP ConfNak id=0x55 <addr 1.1.1.1>]
rcvd [IPCP ConfReq id=0x56 <addr 189.56.68.162>]
sent [IPCP ConfNak id=0x56 <addr 1.1.1.1>]
rcvd [IPCP ConfReq id=0x57 <addr 189.56.68.162>]
sent [IPCP ConfNak id=0x57 <addr 1.1.1.1>]
rcvd [IPCP ConfReq id=0x58 <addr 189.56.68.162>]
sent [IPCP ConfNak id=0x58 <addr 1.1.1.1>]
rcvd [IPCP ConfReq id=0x59 <addr 189.56.68.162>]
sent [IPCP ConfNak id=0x59 <addr 1.1.1.1>]
rcvd [IPCP ConfReq id=0x5a <addr 189.56.68.162>]
sent [IPCP ConfNak id=0x5a <addr 1.1.1.1>]
rcvd [IPCP ConfReq id=0x5b <addr 189.56.68.162>]
sent [IPCP ConfNak id=0x5b <addr 1.1.1.1>]
rcvd [IPCP ConfReq id=0x5c <addr 189.56.68.162>]
sent [IPCP ConfNak id=0x5c <addr 1.1.1.1>]
rcvd [IPCP ConfReq id=0x5d <addr 189.56.68.162>]
sent [IPCP ConfNak id=0x5d <addr 1.1.1.1>]
rcvd [IPCP ConfReq id=0x5e <addr 189.56.68.162>]
sent [IPCP ConfNak id=0x5e <addr 1.1.1.1>]
rcvd [IPCP ConfReq id=0x5f <addr 189.56.68.162>]
sent [IPCP ConfNak id=0x5f <addr 1.1.1.1>]
rcvd [IPCP ConfReq id=0x60 <addr 189.56.68.162>]
sent [IPCP ConfNak id=0x60 <addr 1.1.1.1>]
rcvd [IPCP ConfReq id=0x61 <addr 189.56.68.162>]
sent [IPCP ConfNak id=0x61 <addr 1.1.1.1>]
rcvd [IPCP ConfReq id=0x62 <addr 189.56.68.162>]
sent [IPCP ConfNak id=0x62 <addr 1.1.1.1>]
rcvd [IPCP ConfReq id=0x63 <addr 189.56.68.162>]
sent [IPCP ConfNak id=0x63 <addr 1.1.1.1>]
rcvd [IPCP ConfReq id=0x64 <addr 189.56.68.162>]
sent [IPCP ConfNak id=0x64 <addr 1.1.1.1>]
rcvd [IPCP ConfReq id=0x65 <addr 189.56.68.162>]
sent [IPCP ConfRej id=0x65 <addr 189.56.68.162>]
rcvd [IPCP ConfReq id=0x66 <addrs 189.56.68.162 10.106.106.146>]
sent [IPCP ConfRej id=0x66 <addrs 189.56.68.162 10.106.106.146>]
rcvd [IPCP ConfReq id=0x67]
sent [IPCP ConfAck id=0x67]
local  IP address 10.106.106.146
remote IP address 1.1.1.1
primary   DNS address 10.105.186.5
secondary DNS address 10.106.68.66
Script /etc/ppp/ip-up started (pid 11590)
Script /etc/ppp/ip-up finished (pid 11590), status = 0x0
Modem hangup
Connect time 5.1 minutes.
Sent 61605 bytes, received 109967 bytes.
Script /etc/ppp/ip-down started (pid 11878)
Connection terminated.
Script /etc/ppp/ip-down finished (pid 11878), status = 0x0
using channel 1
Using interface ppp0
Connect: ppp0 <--> /dev/pts/8
sent [LCP ConfReq id=0x1 <mru 1354> <magic 0xd79f2adc>]
rcvd [LCP ConfReq id=0x1 <magic 0xd8b02ecd>]
sent [LCP ConfAck id=0x1 <magic 0xd8b02ecd>]
rcvd [LCP ConfAck id=0x1 <mru 1354> <magic 0xd79f2adc>]
sent [LCP EchoReq id=0x0 magic=0xd79f2adc]
sent [CCP ConfReq id=0x1 <deflate 15> <deflate(old#) 15> <bsd v1 15>]
sent [IPCP ConfReq id=0x1 <compress VJ 0f 01> <addr 0.0.0.0> <ms-dns1 0.0.0.0> <ms-dns2 0.0.0.0>]
rcvd [IPCP ConfReq id=0x1 <addr 189.56.68.162>]
sent [IPCP ConfNak id=0x1 <addr 1.1.1.1>]
rcvd [LCP EchoRep id=0x0 magic=0xd8b02ecd]
rcvd [LCP ProtRej id=0x2 80 fd 01 01 00 0f 1a 04 78 00 18 04 78 00 15 03 2f 00 00]
Protocol-Reject for 'Compression Control Protocol' (0x80fd) received
rcvd [IPCP ConfRej id=0x1 <compress VJ 0f 01>]
sent [IPCP ConfReq id=0x2 <addr 0.0.0.0> <ms-dns1 0.0.0.0> <ms-dns2 0.0.0.0>]
rcvd [IPCP ConfReq id=0x2 <addr 189.56.68.162>]
sent [IPCP ConfNak id=0x2 <addr 1.1.1.1>]
rcvd [IPCP ConfNak id=0x2 <addr 10.106.106.148> <ms-dns1 10.105.186.5> <ms-dns2 10.106.68.66>]
sent [IPCP ConfReq id=0x3 <addr 10.106.106.148> <ms-dns1 10.105.186.5> <ms-dns2 10.106.68.66>]
rcvd [IPCP ConfReq id=0x3 <addr 189.56.68.162>]
sent [IPCP ConfNak id=0x3 <addr 1.1.1.1>]
rcvd [IPCP ConfAck id=0x3 <addr 10.106.106.148> <ms-dns1 10.105.186.5> <ms-dns2 10.106.68.66>]
rcvd [IPCP ConfReq id=0x4 <addr 189.56.68.162>]
sent [IPCP ConfNak id=0x4 <addr 1.1.1.1>]
rcvd [IPCP ConfReq id=0x5 <addr 189.56.68.162>]
sent [IPCP ConfNak id=0x5 <addr 1.1.1.1>]
rcvd [IPCP ConfReq id=0x6 <addr 189.56.68.162>]
sent [IPCP ConfNak id=0x6 <addr 1.1.1.1>]
rcvd [IPCP ConfReq id=0x7 <addr 189.56.68.162>]
sent [IPCP ConfNak id=0x7 <addr 1.1.1.1>]
rcvd [IPCP ConfReq id=0x8 <addr 189.56.68.162>]
sent [IPCP ConfNak id=0x8 <addr 1.1.1.1>]
rcvd [IPCP ConfReq id=0x9 <addr 189.56.68.162>]
sent [IPCP ConfNak id=0x9 <addr 1.1.1.1>]
rcvd [IPCP ConfReq id=0xa <addr 189.56.68.162>]
sent [IPCP ConfNak id=0xa <addr 1.1.1.1>]
rcvd [IPCP ConfReq id=0xb <addr 189.56.68.162>]
sent [IPCP ConfNak id=0xb <addr 1.1.1.1>]
rcvd [IPCP ConfReq id=0xc <addr 189.56.68.162>]
sent [IPCP ConfNak id=0xc <addr 1.1.1.1>]
rcvd [IPCP ConfReq id=0xd <addr 189.56.68.162>]
sent [IPCP ConfNak id=0xd <addr 1.1.1.1>]
rcvd [IPCP ConfReq id=0xe <addr 189.56.68.162>]
sent [IPCP ConfNak id=0xe <addr 1.1.1.1>]
rcvd [IPCP ConfReq id=0xf <addr 189.56.68.162>]
sent [IPCP ConfNak id=0xf <addr 1.1.1.1>]
rcvd [IPCP ConfReq id=0x10 <addr 189.56.68.162>]
sent [IPCP ConfNak id=0x10 <addr 1.1.1.1>]
rcvd [IPCP ConfReq id=0x11 <addr 189.56.68.162>]
sent [IPCP ConfNak id=0x11 <addr 1.1.1.1>]
rcvd [IPCP ConfReq id=0x12 <addr 189.56.68.162>]
sent [IPCP ConfNak id=0x12 <addr 1.1.1.1>]
rcvd [IPCP ConfReq id=0x13 <addr 189.56.68.162>]
sent [IPCP ConfNak id=0x13 <addr 1.1.1.1>]
rcvd [IPCP ConfReq id=0x14 <addr 189.56.68.162>]
sent [IPCP ConfNak id=0x14 <addr 1.1.1.1>]
rcvd [IPCP ConfReq id=0x15 <addr 189.56.68.162>]
sent [IPCP ConfNak id=0x15 <addr 1.1.1.1>]
rcvd [IPCP ConfReq id=0x16 <addr 189.56.68.162>]
sent [IPCP ConfNak id=0x16 <addr 1.1.1.1>]
rcvd [IPCP ConfReq id=0x17 <addr 189.56.68.162>]
sent [IPCP ConfNak id=0x17 <addr 1.1.1.1>]
rcvd [IPCP ConfReq id=0x18 <addr 189.56.68.162>]
sent [IPCP ConfNak id=0x18 <addr 1.1.1.1>]
rcvd [IPCP ConfReq id=0x19 <addr 189.56.68.162>]
sent [IPCP ConfNak id=0x19 <addr 1.1.1.1>]
rcvd [IPCP ConfReq id=0x1a <addr 189.56.68.162>]
sent [IPCP ConfNak id=0x1a <addr 1.1.1.1>]
rcvd [IPCP ConfReq id=0x1b <addr 189.56.68.162>]
sent [IPCP ConfNak id=0x1b <addr 1.1.1.1>]
rcvd [IPCP ConfReq id=0x1c <addr 189.56.68.162>]
sent [IPCP ConfNak id=0x1c <addr 1.1.1.1>]
rcvd [IPCP ConfReq id=0x1d <addr 189.56.68.162>]
sent [IPCP ConfNak id=0x1d <addr 1.1.1.1>]
rcvd [IPCP ConfReq id=0x1e <addr 189.56.68.162>]
sent [IPCP ConfNak id=0x1e <addr 1.1.1.1>]
rcvd [IPCP ConfReq id=0x1f <addr 189.56.68.162>]
sent [IPCP ConfNak id=0x1f <addr 1.1.1.1>]
rcvd [IPCP ConfReq id=0x20 <addr 189.56.68.162>]
sent [IPCP ConfNak id=0x20 <addr 1.1.1.1>]
rcvd [IPCP ConfReq id=0x21 <addr 189.56.68.162>]
sent [IPCP ConfNak id=0x21 <addr 1.1.1.1>]
rcvd [IPCP ConfReq id=0x22 <addr 189.56.68.162>]
sent [IPCP ConfNak id=0x22 <addr 1.1.1.1>]
rcvd [IPCP ConfReq id=0x23 <addr 189.56.68.162>]
sent [IPCP ConfNak id=0x23 <addr 1.1.1.1>]
rcvd [IPCP ConfReq id=0x24 <addr 189.56.68.162>]
sent [IPCP ConfNak id=0x24 <addr 1.1.1.1>]
rcvd [IPCP ConfReq id=0x25 <addr 189.56.68.162>]
sent [IPCP ConfNak id=0x25 <addr 1.1.1.1>]
rcvd [IPCP ConfReq id=0x26 <addr 189.56.68.162>]
sent [IPCP ConfNak id=0x26 <addr 1.1.1.1>]
rcvd [IPCP ConfReq id=0x27 <addr 189.56.68.162>]
sent [IPCP ConfNak id=0x27 <addr 1.1.1.1>]
rcvd [IPCP ConfReq id=0x28 <addr 189.56.68.162>]
sent [IPCP ConfNak id=0x28 <addr 1.1.1.1>]
rcvd [IPCP ConfReq id=0x29 <addr 189.56.68.162>]
sent [IPCP ConfNak id=0x29 <addr 1.1.1.1>]
rcvd [IPCP ConfReq id=0x2a <addr 189.56.68.162>]
sent [IPCP ConfNak id=0x2a <addr 1.1.1.1>]
rcvd [IPCP ConfReq id=0x2b <addr 189.56.68.162>]
sent [IPCP ConfNak id=0x2b <addr 1.1.1.1>]
rcvd [IPCP ConfReq id=0x2c <addr 189.56.68.162>]
sent [IPCP ConfNak id=0x2c <addr 1.1.1.1>]
rcvd [IPCP ConfReq id=0x2d <addr 189.56.68.162>]
sent [IPCP ConfNak id=0x2d <addr 1.1.1.1>]
rcvd [IPCP ConfReq id=0x2e <addr 189.56.68.162>]
sent [IPCP ConfNak id=0x2e <addr 1.1.1.1>]
rcvd [IPCP ConfReq id=0x2f <addr 189.56.68.162>]
sent [IPCP ConfNak id=0x2f <addr 1.1.1.1>]
rcvd [IPCP ConfReq id=0x30 <addr 189.56.68.162>]
sent [IPCP ConfNak id=0x30 <addr 1.1.1.1>]
rcvd [IPCP ConfReq id=0x31 <addr 189.56.68.162>]
sent [IPCP ConfNak id=0x31 <addr 1.1.1.1>]
rcvd [IPCP ConfReq id=0x32 <addr 189.56.68.162>]
sent [IPCP ConfNak id=0x32 <addr 1.1.1.1>]
rcvd [IPCP ConfReq id=0x33 <addr 189.56.68.162>]
sent [IPCP ConfNak id=0x33 <addr 1.1.1.1>]
rcvd [IPCP ConfReq id=0x34 <addr 189.56.68.162>]
sent [IPCP ConfNak id=0x34 <addr 1.1.1.1>]
rcvd [IPCP ConfReq id=0x35 <addr 189.56.68.162>]
sent [IPCP ConfNak id=0x35 <addr 1.1.1.1>]
rcvd [IPCP ConfReq id=0x36 <addr 189.56.68.162>]
sent [IPCP ConfNak id=0x36 <addr 1.1.1.1>]
rcvd [IPCP ConfReq id=0x37 <addr 189.56.68.162>]
sent [IPCP ConfNak id=0x37 <addr 1.1.1.1>]
rcvd [IPCP ConfReq id=0x38 <addr 189.56.68.162>]
sent [IPCP ConfNak id=0x38 <addr 1.1.1.1>]
rcvd [IPCP ConfReq id=0x39 <addr 189.56.68.162>]
sent [IPCP ConfNak id=0x39 <addr 1.1.1.1>]
rcvd [IPCP ConfReq id=0x3a <addr 189.56.68.162>]
sent [IPCP ConfNak id=0x3a <addr 1.1.1.1>]
rcvd [IPCP ConfReq id=0x3b <addr 189.56.68.162>]
sent [IPCP ConfNak id=0x3b <addr 1.1.1.1>]
rcvd [IPCP ConfReq id=0x3c <addr 189.56.68.162>]
sent [IPCP ConfNak id=0x3c <addr 1.1.1.1>]
rcvd [IPCP ConfReq id=0x3d <addr 189.56.68.162>]
sent [IPCP ConfNak id=0x3d <addr 1.1.1.1>]
rcvd [IPCP ConfReq id=0x3e <addr 189.56.68.162>]
sent [IPCP ConfNak id=0x3e <addr 1.1.1.1>]
rcvd [IPCP ConfReq id=0x3f <addr 189.56.68.162>]
sent [IPCP ConfNak id=0x3f <addr 1.1.1.1>]
rcvd [IPCP ConfReq id=0x40 <addr 189.56.68.162>]
sent [IPCP ConfNak id=0x40 <addr 1.1.1.1>]
rcvd [IPCP ConfReq id=0x41 <addr 189.56.68.162>]
sent [IPCP ConfNak id=0x41 <addr 1.1.1.1>]
rcvd [IPCP ConfReq id=0x42 <addr 189.56.68.162>]
sent [IPCP ConfNak id=0x42 <addr 1.1.1.1>]
rcvd [IPCP ConfReq id=0x43 <addr 189.56.68.162>]
sent [IPCP ConfNak id=0x43 <addr 1.1.1.1>]
rcvd [IPCP ConfReq id=0x44 <addr 189.56.68.162>]
sent [IPCP ConfNak id=0x44 <addr 1.1.1.1>]
rcvd [IPCP ConfReq id=0x45 <addr 189.56.68.162>]
sent [IPCP ConfNak id=0x45 <addr 1.1.1.1>]
rcvd [IPCP ConfReq id=0x46 <addr 189.56.68.162>]
sent [IPCP ConfNak id=0x46 <addr 1.1.1.1>]
rcvd [IPCP ConfReq id=0x47 <addr 189.56.68.162>]
sent [IPCP ConfNak id=0x47 <addr 1.1.1.1>]
rcvd [IPCP ConfReq id=0x48 <addr 189.56.68.162>]
sent [IPCP ConfNak id=0x48 <addr 1.1.1.1>]
rcvd [IPCP ConfReq id=0x49 <addr 189.56.68.162>]
sent [IPCP ConfNak id=0x49 <addr 1.1.1.1>]
rcvd [IPCP ConfReq id=0x4a <addr 189.56.68.162>]
sent [IPCP ConfNak id=0x4a <addr 1.1.1.1>]
rcvd [IPCP ConfReq id=0x4b <addr 189.56.68.162>]
sent [IPCP ConfNak id=0x4b <addr 1.1.1.1>]
rcvd [IPCP ConfReq id=0x4c <addr 189.56.68.162>]
sent [IPCP ConfNak id=0x4c <addr 1.1.1.1>]
rcvd [IPCP ConfReq id=0x4d <addr 189.56.68.162>]
sent [IPCP ConfNak id=0x4d <addr 1.1.1.1>]
rcvd [IPCP ConfReq id=0x4e <addr 189.56.68.162>]
sent [IPCP ConfNak id=0x4e <addr 1.1.1.1>]
rcvd [IPCP ConfReq id=0x4f <addr 189.56.68.162>]
sent [IPCP ConfNak id=0x4f <addr 1.1.1.1>]
rcvd [IPCP ConfReq id=0x50 <addr 189.56.68.162>]
sent [IPCP ConfNak id=0x50 <addr 1.1.1.1>]
rcvd [IPCP ConfReq id=0x51 <addr 189.56.68.162>]
sent [IPCP ConfNak id=0x51 <addr 1.1.1.1>]
rcvd [IPCP ConfReq id=0x52 <addr 189.56.68.162>]
sent [IPCP ConfNak id=0x52 <addr 1.1.1.1>]
rcvd [IPCP ConfReq id=0x53 <addr 189.56.68.162>]
sent [IPCP ConfNak id=0x53 <addr 1.1.1.1>]
rcvd [IPCP ConfReq id=0x54 <addr 189.56.68.162>]
sent [IPCP ConfNak id=0x54 <addr 1.1.1.1>]
rcvd [IPCP ConfReq id=0x55 <addr 189.56.68.162>]
sent [IPCP ConfNak id=0x55 <addr 1.1.1.1>]
rcvd [IPCP ConfReq id=0x56 <addr 189.56.68.162>]
sent [IPCP ConfNak id=0x56 <addr 1.1.1.1>]
rcvd [IPCP ConfReq id=0x57 <addr 189.56.68.162>]
sent [IPCP ConfNak id=0x57 <addr 1.1.1.1>]
sent [IPCP ConfReq id=0x3 <addr 10.106.106.148> <ms-dns1 10.105.186.5> <ms-dns2 10.106.68.66>]
rcvd [IPCP ConfReq id=0x58 <addr 189.56.68.162>]
sent [IPCP ConfNak id=0x58 <addr 1.1.1.1>]
rcvd [IPCP ConfAck id=0x3 <addr 10.106.106.148> <ms-dns1 10.105.186.5> <ms-dns2 10.106.68.66>]
rcvd [IPCP ConfReq id=0x59 <addr 189.56.68.162>]
sent [IPCP ConfNak id=0x59 <addr 1.1.1.1>]
rcvd [IPCP ConfReq id=0x5a <addr 189.56.68.162>]
sent [IPCP ConfNak id=0x5a <addr 1.1.1.1>]
rcvd [IPCP ConfReq id=0x5b <addr 189.56.68.162>]
sent [IPCP ConfNak id=0x5b <addr 1.1.1.1>]
rcvd [IPCP ConfReq id=0x5c <addr 189.56.68.162>]
sent [IPCP ConfNak id=0x5c <addr 1.1.1.1>]
rcvd [IPCP ConfReq id=0x5d <addr 189.56.68.162>]
sent [IPCP ConfNak id=0x5d <addr 1.1.1.1>]
rcvd [IPCP ConfReq id=0x5e <addr 189.56.68.162>]
sent [IPCP ConfNak id=0x5e <addr 1.1.1.1>]
rcvd [IPCP ConfReq id=0x5f <addr 189.56.68.162>]
sent [IPCP ConfNak id=0x5f <addr 1.1.1.1>]
rcvd [IPCP ConfReq id=0x60 <addr 189.56.68.162>]
sent [IPCP ConfNak id=0x60 <addr 1.1.1.1>]
rcvd [IPCP ConfReq id=0x61 <addr 189.56.68.162>]
sent [IPCP ConfNak id=0x61 <addr 1.1.1.1>]
rcvd [IPCP ConfReq id=0x62 <addr 189.56.68.162>]
sent [IPCP ConfNak id=0x62 <addr 1.1.1.1>]
rcvd [IPCP ConfReq id=0x63 <addr 189.56.68.162>]
sent [IPCP ConfNak id=0x63 <addr 1.1.1.1>]
rcvd [IPCP ConfReq id=0x64 <addr 189.56.68.162>]
sent [IPCP ConfNak id=0x64 <addr 1.1.1.1>]
rcvd [IPCP ConfReq id=0x65 <addr 189.56.68.162>]
sent [IPCP ConfRej id=0x65 <addr 189.56.68.162>]
rcvd [IPCP ConfReq id=0x66 <addrs 189.56.68.162 10.106.106.148>]
sent [IPCP ConfRej id=0x66 <addrs 189.56.68.162 10.106.106.148>]
rcvd [IPCP ConfReq id=0x67]
sent [IPCP ConfAck id=0x67]
local  IP address 10.106.106.148
remote IP address 1.1.1.1
primary   DNS address 10.105.186.5
secondary DNS address 10.106.68.66
Script /etc/ppp/ip-up started (pid 13824)
Script /etc/ppp/ip-up finished (pid 13824), status = 0x0
using channel 1
Using interface ppp0
Connect: ppp0 <--> /dev/pts/1
sent [LCP ConfReq id=0x1 <mru 1354> <magic 0x51df028c>]
rcvd [LCP ConfReq id=0x1 <magic 0x389216d1>]
sent [LCP ConfAck id=0x1 <magic 0x389216d1>]
rcvd [LCP ConfAck id=0x1 <mru 1354> <magic 0x51df028c>]
sent [LCP EchoReq id=0x0 magic=0x51df028c]
sent [CCP ConfReq id=0x1 <deflate 15> <deflate(old#) 15> <bsd v1 15>]
sent [IPCP ConfReq id=0x1 <compress VJ 0f 01> <addr 0.0.0.0> <ms-dns1 0.0.0.0> <ms-dns2 0.0.0.0>]
rcvd [LCP EchoRep id=0x0 magic=0x389216d1]
rcvd [IPCP ConfReq id=0x1 <addr 189.56.68.162>]
sent [IPCP ConfNak id=0x1 <addr 1.1.1.1>]
rcvd [LCP ProtRej id=0x2 80 fd 01 01 00 0f 1a 04 78 00 18 04 78 00 15 03 2f 00 00]
Protocol-Reject for 'Compression Control Protocol' (0x80fd) received
rcvd [IPCP ConfRej id=0x1 <compress VJ 0f 01>]
sent [IPCP ConfReq id=0x2 <addr 0.0.0.0> <ms-dns1 0.0.0.0> <ms-dns2 0.0.0.0>]
rcvd [IPCP ConfReq id=0x2 <addr 189.56.68.162>]
sent [IPCP ConfNak id=0x2 <addr 1.1.1.1>]
rcvd [IPCP ConfNak id=0x2 <addr 10.106.0.225> <ms-dns1 10.105.186.5> <ms-dns2 10.106.68.66>]
sent [IPCP ConfReq id=0x3 <addr 10.106.0.225> <ms-dns1 10.105.186.5> <ms-dns2 10.106.68.66>]
rcvd [IPCP ConfReq id=0x3 <addr 189.56.68.162>]
sent [IPCP ConfNak id=0x3 <addr 1.1.1.1>]
rcvd [IPCP ConfAck id=0x3 <addr 10.106.0.225> <ms-dns1 10.105.186.5> <ms-dns2 10.106.68.66>]
rcvd [IPCP ConfReq id=0x4 <addr 189.56.68.162>]
sent [IPCP ConfNak id=0x4 <addr 1.1.1.1>]
rcvd [IPCP ConfReq id=0x5 <addr 189.56.68.162>]
sent [IPCP ConfNak id=0x5 <addr 1.1.1.1>]
rcvd [IPCP ConfReq id=0x6 <addr 189.56.68.162>]
sent [IPCP ConfNak id=0x6 <addr 1.1.1.1>]
rcvd [IPCP ConfReq id=0x7 <addr 189.56.68.162>]
sent [IPCP ConfNak id=0x7 <addr 1.1.1.1>]
rcvd [IPCP ConfReq id=0x8 <addr 189.56.68.162>]
sent [IPCP ConfNak id=0x8 <addr 1.1.1.1>]
rcvd [IPCP ConfReq id=0x9 <addr 189.56.68.162>]
sent [IPCP ConfNak id=0x9 <addr 1.1.1.1>]
rcvd [IPCP ConfReq id=0xa <addr 189.56.68.162>]
sent [IPCP ConfNak id=0xa <addr 1.1.1.1>]
rcvd [IPCP ConfReq id=0xb <addr 189.56.68.162>]
sent [IPCP ConfNak id=0xb <addr 1.1.1.1>]
rcvd [IPCP ConfReq id=0xc <addr 189.56.68.162>]
sent [IPCP ConfNak id=0xc <addr 1.1.1.1>]
rcvd [IPCP ConfReq id=0xd <addr 189.56.68.162>]
sent [IPCP ConfNak id=0xd <addr 1.1.1.1>]
rcvd [IPCP ConfReq id=0xe <addr 189.56.68.162>]
sent [IPCP ConfNak id=0xe <addr 1.1.1.1>]
rcvd [IPCP ConfReq id=0xf <addr 189.56.68.162>]
sent [IPCP ConfNak id=0xf <addr 1.1.1.1>]
rcvd [IPCP ConfReq id=0x10 <addr 189.56.68.162>]
sent [IPCP ConfNak id=0x10 <addr 1.1.1.1>]
rcvd [IPCP ConfReq id=0x11 <addr 189.56.68.162>]
sent [IPCP ConfNak id=0x11 <addr 1.1.1.1>]
rcvd [IPCP ConfReq id=0x12 <addr 189.56.68.162>]
sent [IPCP ConfNak id=0x12 <addr 1.1.1.1>]
rcvd [IPCP ConfReq id=0x13 <addr 189.56.68.162>]
sent [IPCP ConfNak id=0x13 <addr 1.1.1.1>]
rcvd [IPCP ConfReq id=0x14 <addr 189.56.68.162>]
sent [IPCP ConfNak id=0x14 <addr 1.1.1.1>]
rcvd [IPCP ConfReq id=0x15 <addr 189.56.68.162>]
sent [IPCP ConfNak id=0x15 <addr 1.1.1.1>]
rcvd [IPCP ConfReq id=0x16 <addr 189.56.68.162>]
sent [IPCP ConfNak id=0x16 <addr 1.1.1.1>]
rcvd [IPCP ConfReq id=0x17 <addr 189.56.68.162>]
sent [IPCP ConfNak id=0x17 <addr 1.1.1.1>]
rcvd [IPCP ConfReq id=0x18 <addr 189.56.68.162>]
sent [IPCP ConfNak id=0x18 <addr 1.1.1.1>]
rcvd [IPCP ConfReq id=0x19 <addr 189.56.68.162>]
sent [IPCP ConfNak id=0x19 <addr 1.1.1.1>]
rcvd [IPCP ConfReq id=0x1a <addr 189.56.68.162>]
sent [IPCP ConfNak id=0x1a <addr 1.1.1.1>]
rcvd [IPCP ConfReq id=0x1b <addr 189.56.68.162>]
sent [IPCP ConfNak id=0x1b <addr 1.1.1.1>]
rcvd [IPCP ConfReq id=0x1c <addr 189.56.68.162>]
sent [IPCP ConfNak id=0x1c <addr 1.1.1.1>]
rcvd [IPCP ConfReq id=0x1d <addr 189.56.68.162>]
sent [IPCP ConfNak id=0x1d <addr 1.1.1.1>]
rcvd [IPCP ConfReq id=0x1e <addr 189.56.68.162>]
sent [IPCP ConfNak id=0x1e <addr 1.1.1.1>]
rcvd [IPCP ConfReq id=0x1f <addr 189.56.68.162>]
sent [IPCP ConfNak id=0x1f <addr 1.1.1.1>]
rcvd [IPCP ConfReq id=0x20 <addr 189.56.68.162>]
sent [IPCP ConfNak id=0x20 <addr 1.1.1.1>]
rcvd [IPCP ConfReq id=0x21 <addr 189.56.68.162>]
sent [IPCP ConfNak id=0x21 <addr 1.1.1.1>]
rcvd [IPCP ConfReq id=0x22 <addr 189.56.68.162>]
sent [IPCP ConfNak id=0x22 <addr 1.1.1.1>]
rcvd [IPCP ConfReq id=0x23 <addr 189.56.68.162>]
sent [IPCP ConfNak id=0x23 <addr 1.1.1.1>]
rcvd [IPCP ConfReq id=0x24 <addr 189.56.68.162>]
sent [IPCP ConfNak id=0x24 <addr 1.1.1.1>]
rcvd [IPCP ConfReq id=0x25 <addr 189.56.68.162>]
sent [IPCP ConfNak id=0x25 <addr 1.1.1.1>]
rcvd [IPCP ConfReq id=0x26 <addr 189.56.68.162>]
sent [IPCP ConfNak id=0x26 <addr 1.1.1.1>]
rcvd [IPCP ConfReq id=0x27 <addr 189.56.68.162>]
sent [IPCP ConfNak id=0x27 <addr 1.1.1.1>]
rcvd [IPCP ConfReq id=0x28 <addr 189.56.68.162>]
sent [IPCP ConfNak id=0x28 <addr 1.1.1.1>]
rcvd [IPCP ConfReq id=0x29 <addr 189.56.68.162>]
sent [IPCP ConfNak id=0x29 <addr 1.1.1.1>]
rcvd [IPCP ConfReq id=0x2a <addr 189.56.68.162>]
sent [IPCP ConfNak id=0x2a <addr 1.1.1.1>]
rcvd [IPCP ConfReq id=0x2b <addr 189.56.68.162>]
sent [IPCP ConfNak id=0x2b <addr 1.1.1.1>]
rcvd [IPCP ConfReq id=0x2c <addr 189.56.68.162>]
sent [IPCP ConfNak id=0x2c <addr 1.1.1.1>]
rcvd [IPCP ConfReq id=0x2d <addr 189.56.68.162>]
sent [IPCP ConfNak id=0x2d <addr 1.1.1.1>]
rcvd [IPCP ConfReq id=0x2e <addr 189.56.68.162>]
sent [IPCP ConfNak id=0x2e <addr 1.1.1.1>]
rcvd [IPCP ConfReq id=0x2f <addr 189.56.68.162>]
sent [IPCP ConfNak id=0x2f <addr 1.1.1.1>]
rcvd [IPCP ConfReq id=0x30 <addr 189.56.68.162>]
sent [IPCP ConfNak id=0x30 <addr 1.1.1.1>]
rcvd [IPCP ConfReq id=0x31 <addr 189.56.68.162>]
sent [IPCP ConfNak id=0x31 <addr 1.1.1.1>]
rcvd [IPCP ConfReq id=0x32 <addr 189.56.68.162>]
sent [IPCP ConfNak id=0x32 <addr 1.1.1.1>]
rcvd [IPCP ConfReq id=0x33 <addr 189.56.68.162>]
sent [IPCP ConfNak id=0x33 <addr 1.1.1.1>]
rcvd [IPCP ConfReq id=0x34 <addr 189.56.68.162>]
sent [IPCP ConfNak id=0x34 <addr 1.1.1.1>]
rcvd [IPCP ConfReq id=0x35 <addr 189.56.68.162>]
sent [IPCP ConfNak id=0x35 <addr 1.1.1.1>]
rcvd [IPCP ConfReq id=0x36 <addr 189.56.68.162>]
sent [IPCP ConfNak id=0x36 <addr 1.1.1.1>]
rcvd [IPCP ConfReq id=0x37 <addr 189.56.68.162>]
sent [IPCP ConfNak id=0x37 <addr 1.1.1.1>]
rcvd [IPCP ConfReq id=0x38 <addr 189.56.68.162>]
sent [IPCP ConfNak id=0x38 <addr 1.1.1.1>]
rcvd [IPCP ConfReq id=0x39 <addr 189.56.68.162>]
sent [IPCP ConfNak id=0x39 <addr 1.1.1.1>]
rcvd [IPCP ConfReq id=0x3a <addr 189.56.68.162>]
sent [IPCP ConfNak id=0x3a <addr 1.1.1.1>]
rcvd [IPCP ConfReq id=0x3b <addr 189.56.68.162>]
sent [IPCP ConfNak id=0x3b <addr 1.1.1.1>]
rcvd [IPCP ConfReq id=0x3c <addr 189.56.68.162>]
sent [IPCP ConfNak id=0x3c <addr 1.1.1.1>]
rcvd [IPCP ConfReq id=0x3d <addr 189.56.68.162>]
sent [IPCP ConfNak id=0x3d <addr 1.1.1.1>]
rcvd [IPCP ConfReq id=0x3e <addr 189.56.68.162>]
sent [IPCP ConfNak id=0x3e <addr 1.1.1.1>]
rcvd [IPCP ConfReq id=0x3f <addr 189.56.68.162>]
sent [IPCP ConfNak id=0x3f <addr 1.1.1.1>]
rcvd [IPCP ConfReq id=0x40 <addr 189.56.68.162>]
sent [IPCP ConfNak id=0x40 <addr 1.1.1.1>]
rcvd [IPCP ConfReq id=0x41 <addr 189.56.68.162>]
sent [IPCP ConfNak id=0x41 <addr 1.1.1.1>]
rcvd [IPCP ConfReq id=0x42 <addr 189.56.68.162>]
sent [IPCP ConfNak id=0x42 <addr 1.1.1.1>]
rcvd [IPCP ConfReq id=0x43 <addr 189.56.68.162>]
sent [IPCP ConfNak id=0x43 <addr 1.1.1.1>]
rcvd [IPCP ConfReq id=0x44 <addr 189.56.68.162>]
sent [IPCP ConfNak id=0x44 <addr 1.1.1.1>]
rcvd [IPCP ConfReq id=0x45 <addr 189.56.68.162>]
sent [IPCP ConfNak id=0x45 <addr 1.1.1.1>]
rcvd [IPCP ConfReq id=0x46 <addr 189.56.68.162>]
sent [IPCP ConfNak id=0x46 <addr 1.1.1.1>]
rcvd [IPCP ConfReq id=0x47 <addr 189.56.68.162>]
sent [IPCP ConfNak id=0x47 <addr 1.1.1.1>]
rcvd [IPCP ConfReq id=0x48 <addr 189.56.68.162>]
sent [IPCP ConfNak id=0x48 <addr 1.1.1.1>]
rcvd [IPCP ConfReq id=0x49 <addr 189.56.68.162>]
sent [IPCP ConfNak id=0x49 <addr 1.1.1.1>]
rcvd [IPCP ConfReq id=0x4a <addr 189.56.68.162>]
sent [IPCP ConfNak id=0x4a <addr 1.1.1.1>]
rcvd [IPCP ConfReq id=0x4b <addr 189.56.68.162>]
sent [IPCP ConfNak id=0x4b <addr 1.1.1.1>]
rcvd [IPCP ConfReq id=0x4c <addr 189.56.68.162>]
sent [IPCP ConfNak id=0x4c <addr 1.1.1.1>]
rcvd [IPCP ConfReq id=0x4d <addr 189.56.68.162>]
sent [IPCP ConfNak id=0x4d <addr 1.1.1.1>]
rcvd [IPCP ConfReq id=0x4e <addr 189.56.68.162>]
sent [IPCP ConfNak id=0x4e <addr 1.1.1.1>]
rcvd [IPCP ConfReq id=0x4f <addr 189.56.68.162>]
sent [IPCP ConfNak id=0x4f <addr 1.1.1.1>]
rcvd [IPCP ConfReq id=0x50 <addr 189.56.68.162>]
sent [IPCP ConfNak id=0x50 <addr 1.1.1.1>]
rcvd [IPCP ConfReq id=0x51 <addr 189.56.68.162>]
sent [IPCP ConfNak id=0x51 <addr 1.1.1.1>]
rcvd [IPCP ConfReq id=0x52 <addr 189.56.68.162>]
sent [IPCP ConfNak id=0x52 <addr 1.1.1.1>]
rcvd [IPCP ConfReq id=0x53 <addr 189.56.68.162>]
sent [IPCP ConfNak id=0x53 <addr 1.1.1.1>]
rcvd [IPCP ConfReq id=0x54 <addr 189.56.68.162>]
sent [IPCP ConfNak id=0x54 <addr 1.1.1.1>]
rcvd [IPCP ConfReq id=0x55 <addr 189.56.68.162>]
sent [IPCP ConfNak id=0x55 <addr 1.1.1.1>]
rcvd [IPCP ConfReq id=0x56 <addr 189.56.68.162>]
sent [IPCP ConfNak id=0x56 <addr 1.1.1.1>]
rcvd [IPCP ConfReq id=0x57 <addr 189.56.68.162>]
sent [IPCP ConfNak id=0x57 <addr 1.1.1.1>]
rcvd [IPCP ConfReq id=0x58 <addr 189.56.68.162>]
sent [IPCP ConfNak id=0x58 <addr 1.1.1.1>]
rcvd [IPCP ConfReq id=0x59 <addr 189.56.68.162>]
sent [IPCP ConfNak id=0x59 <addr 1.1.1.1>]
rcvd [IPCP ConfReq id=0x5a <addr 189.56.68.162>]
sent [IPCP ConfNak id=0x5a <addr 1.1.1.1>]
rcvd [IPCP ConfReq id=0x5b <addr 189.56.68.162>]
sent [IPCP ConfNak id=0x5b <addr 1.1.1.1>]
rcvd [IPCP ConfReq id=0x5c <addr 189.56.68.162>]
sent [IPCP ConfNak id=0x5c <addr 1.1.1.1>]
rcvd [IPCP ConfReq id=0x5d <addr 189.56.68.162>]
sent [IPCP ConfNak id=0x5d <addr 1.1.1.1>]
rcvd [IPCP ConfReq id=0x5e <addr 189.56.68.162>]
sent [IPCP ConfNak id=0x5e <addr 1.1.1.1>]
rcvd [IPCP ConfReq id=0x5f <addr 189.56.68.162>]
sent [IPCP ConfNak id=0x5f <addr 1.1.1.1>]
rcvd [IPCP ConfReq id=0x60 <addr 189.56.68.162>]
sent [IPCP ConfNak id=0x60 <addr 1.1.1.1>]
rcvd [IPCP ConfReq id=0x61 <addr 189.56.68.162>]
sent [IPCP ConfNak id=0x61 <addr 1.1.1.1>]
rcvd [IPCP ConfReq id=0x62 <addr 189.56.68.162>]
sent [IPCP ConfNak id=0x62 <addr 1.1.1.1>]
rcvd [IPCP ConfReq id=0x63 <addr 189.56.68.162>]
sent [IPCP ConfNak id=0x63 <addr 1.1.1.1>]
rcvd [IPCP ConfReq id=0x64 <addr 189.56.68.162>]
sent [IPCP ConfNak id=0x64 <addr 1.1.1.1>]
rcvd [IPCP ConfReq id=0x65 <addr 189.56.68.162>]
sent [IPCP ConfRej id=0x65 <addr 189.56.68.162>]
rcvd [IPCP ConfReq id=0x66 <addrs 189.56.68.162 10.106.0.225>]
sent [IPCP ConfRej id=0x66 <addrs 189.56.68.162 10.106.0.225>]
rcvd [IPCP ConfReq id=0x67]
sent [IPCP ConfAck id=0x67]
local  IP address 10.106.0.225
remote IP address 1.1.1.1
primary   DNS address 10.105.186.5
secondary DNS address 10.106.68.66
Script /etc/ppp/ip-up started (pid 2605)
Script /etc/ppp/ip-up finished (pid 2605), status = 0x0
